Lab4
…
1

The more recent files the country/region and Province/State has already been renamed. Also, in the more recent files there are more observations and variables

## 2
report_03_11_2020 %>% 
  group_by(Country_Region) %>% 
  summarise(Count = n())

## `summarise()` ungrouping output (override with `.groups` argument)

## # A tibble: 116 x 2
##    Country_Region Count
##    <fct>          <int>
##  1 Afghanistan        1
##  2 Albania            1
##  3 Algeria            1
##  4 Andorra            1
##  5 Argentina          1
##  6 Armenia            1
##  7 Australia          8
##  8 Austria            1
##  9 Azerbaijan         1
## 10 Bahrain            1
## #  with 106 more rows
…
